Juan Carlos Avellanez Galindez          30999888L           3000                6000                0                   false               
Ana García Martínez                     20887777K           2500                14000               0                   false               
Pedro Galgez Rodríguez                  40776666M           500                 15500               0                   false               
María Eustaquia Sánchez                 50665555N           3200                6200                0                   false               
Luis Martínez Gómez                     60554444T           2800                5800                0                   false               
Elena Fernández García                  70443333J           800                 5400                0                   false               
David Urraquez Martínez                 80332222R           3100                16700               0                   false               
Sofía López Rodríguez                   91221111S           900                 6100                0                   false               
Eustaquio Rodolfo Ruiz Pérez            81230000A           2700                15900               0                   false               
Laura Gómez Fernández                   91229999B           3300                6300                0                   false               
